<?xml version="1.0" standalone="no"?>
<!DOCTYPE svg PUBLIC "-//W3C//DTD SVG 20010904//EN"
 "http://www.w3.org/TR/2001/REC-SVG-20010904/DTD/svg10.dtd">
<svg version="1.0" xmlns="http://www.w3.org/2000/svg"
 width="273.000000pt" height="273.000000pt" viewBox="0 0 273.000000 273.000000"
 preserveAspectRatio="xMidYMid meet">
<metadata>
Created by potrace 1.11, written by Peter Selinger 2001-2013
</metadata>
<g transform="translate(0.000000,273.000000) scale(0.100000,-0.100000)"
fill="#000000" stroke="none">
<path d="M1179 2714 c-212 -40 -373 -122 -515 -260 -184 -179 -272 -377 -279
-630 -3 -125 9 -207 47 -318 42 -122 107 -232 225 -379 70 -87 97 -117 237
-261 260 -268 327 -345 421 -481 26 -38 49 -71 50 -73 2 -2 19 24 39 57 33 54
184 260 210 287 6 6 39 42 73 80 34 38 92 101 130 140 397 414 474 527 519
769 19 106 15 259 -11 370 -15 65 -19 76 -62 173 -97 216 -324 409 -585 496
-128 43 -357 57 -499 30z"/>
<path d="M1109 346 c-2 -2 -40 -6 -84 -9 -44 -3 -91 -8 -105 -11 -14 -3 -35
-8 -48 -10 -81 -17 -145 -78 -135 -130 24 -122 380 -202 770 -173 80 7 122 12
222 32 78 15 181 61 213 95 47 50 25 115 -51 149 -73 32 -112 40 -231 46 l-85
5 65 -18 c176 -50 273 -99 250 -127 -10 -12 -90 -44 -125 -51 -49 -9 -123 -19
-225 -29 -65 -6 -277 -6 -370 0 -154 11 -309 45 -347 76 -31 26 37 65 190 109
57 16 115 30 128 31 22 0 23 1 4 9 -24 10 -30 11 -36 6z"/>
</g>
</svg>
